…
# ... from other classes
library(sf)
nc_sf <- st_read(system.file("shape/nc.shp", package="sf"), quiet = TRUE)
nc_geom <- gc_geom(input = nc_sf)
```

Metadata of different classes can be extracted in interoperable quality
(i.e. the same metadata in different objects/classes have the same name
and the same arrangement).

``` r
getFeatures(x = nc_sf)
#> # A tibble: 108 x 16
#>      fid   gid  AREA PERIMETER CNTY_ CNTY_ID NAME    FIPS  FIPSNO CRESS_ID BIR74
#>  * <int> <int> <dbl>     <dbl> <dbl>   <dbl> <fct>   <fct>  <dbl>    <int> <dbl>
#>  1     1     1 0.114      1.44  1825    1825 Ashe    37009  37009        5  1091
#>  2     2     2 0.061      1.23  1827    1827 Allegh… 37005  37005        3   487
#>  3     3     3 0.143      1.63  1828    1828 Surry   37171  37171       86  3188
#>  4     4     4 0.07       2.97  1831    1831 Currit… 37053  37053       27   508
#>  5     5     4 0.07       2.97  1831    1831 Currit… 37053  37053       27   508
#>  6     6     4 0.07       2.97  1831    1831 Currit… 37053  37053       27   508
#>  7     7     5 0.153      2.21  1832    1832 Northa… 37131  37131       66  1421
#>  8     8     6 0.097      1.67  1833    1833 Hertfo… 37091  37091       46  1452
#>  9     9     7 0.062      1.55  1834    1834 Camden  37029  37029       15   286
#> 10    10     8 0.091      1.28  1835    1835 Gates   37073  37073       37   420
#> # … with 98 more rows, and 5 more variables: SID74 <dbl>, NWBIR74 <dbl>,
#> #   BIR79 <dbl>, SID79 <dbl>, NWBIR79 <dbl>

getFeatures(x = nc_geom)
#> # A tibble: 108 x 16
#>      fid   gid  AREA PERIMETER CNTY_ CNTY_ID NAME    FIPS  FIPSNO CRESS_ID BIR74
#>  * <int> <int> <dbl>     <dbl> <dbl>   <dbl> <fct>   <fct>  <dbl>    <int> <dbl>
#>  1     1     1 0.114      1.44  1825    1825 Ashe    37009  37009        5  1091
#>  2     2     2 0.061      1.23  1827    1827 Allegh… 37005  37005        3   487
#>  3     3     3 0.143      1.63  1828    1828 Surry   37171  37171       86  3188
#>  4     4     4 0.07       2.97  1831    1831 Currit… 37053  37053       27   508
#>  5     5     4 0.07       2.97  1831    1831 Currit… 37053  37053       27   508
#>  6     6     4 0.07       2.97  1831    1831 Currit… 37053  37053       27   508
#>  7     7     5 0.153      2.21  1832    1832 Northa… 37131  37131       66  1421
#>  8     8     6 0.097      1.67  1833    1833 Hertfo… 37091  37091       46  1452
#>  9     9     7 0.062      1.55  1834    1834 Camden  37029  37029       15   286
#> 10    10     8 0.091      1.28  1835    1835 Gates   37073  37073       37   420
#> # … with 98 more rows, and 5 more variables: SID74 <dbl>, NWBIR74 <dbl>,
#> #   BIR79 <dbl>, SID79 <dbl>, NWBIR79 <dbl>
```
…
