Generate and modify interoperable geometric shapes • geometr
…
Metadata of different classes can be extracted in interoperable quality (i.e. the same metadata in the same arrangement).

getTable(x = nc_sf)
#> Registered S3 method overwritten by 'cli':
#>   method     from    
#>   print.boxx spatstat
#> # A tibble: 108 x 16
#>      fid   gid  AREA PERIMETER CNTY_ CNTY_ID NAME  FIPS  FIPSNO CRESS_ID
#>    <int> <int> <dbl>     <dbl> <dbl>   <dbl> <fct> <fct>  <dbl>    <int>
#>  1     1     1 0.114      1.44  1825    1825 Ashe  37009  37009        5
#>  2     2     2 0.061      1.23  1827    1827 Alle… 37005  37005        3
#>  3     3     3 0.143      1.63  1828    1828 Surry 37171  37171       86
#>  4     4     4 0.07       2.97  1831    1831 Curr… 37053  37053       27
#>  5     5     4 0.07       2.97  1831    1831 Curr… 37053  37053       27
#>  6     6     4 0.07       2.97  1831    1831 Curr… 37053  37053       27
#>  7     7     5 0.153      2.21  1832    1832 Nort… 37131  37131       66
#>  8     8     6 0.097      1.67  1833    1833 Hert… 37091  37091       46
#>  9     9     7 0.062      1.55  1834    1834 Camd… 37029  37029       15
#> 10    10     8 0.091      1.28  1835    1835 Gates 37073  37073       37
#> # … with 98 more rows, and 6 more variables: BIR74 <dbl>, SID74 <dbl>,
#> #   NWBIR74 <dbl>, BIR79 <dbl>, SID79 <dbl>, NWBIR79 <dbl>
getTable(x = nc_geom, slot = "feature")
#> # A tibble: 108 x 16
#>      fid   gid  AREA PERIMETER CNTY_ CNTY_ID NAME  FIPS  FIPSNO CRESS_ID
#>    <int> <int> <dbl>     <dbl> <dbl>   <dbl> <fct> <fct>  <dbl>    <int>
#>  1     1     1 0.114      1.44  1825    1825 Ashe  37009  37009        5
#>  2     2     2 0.061      1.23  1827    1827 Alle… 37005  37005        3
#>  3     3     3 0.143      1.63  1828    1828 Surry 37171  37171       86
#>  4     4     4 0.07       2.97  1831    1831 Curr… 37053  37053       27
#>  5     5     4 0.07       2.97  1831    1831 Curr… 37053  37053       27
#>  6     6     4 0.07       2.97  1831    1831 Curr… 37053  37053       27
#>  7     7     5 0.153      2.21  1832    1832 Nort… 37131  37131       66
#>  8     8     6 0.097      1.67  1833    1833 Hert… 37091  37091       46
#>  9     9     7 0.062      1.55  1834    1834 Camd… 37029  37029       15
#> 10    10     8 0.091      1.28  1835    1835 Gates 37073  37073       37
#> # … with 98 more rows, and 6 more variables: BIR74 <dbl>, SID74 <dbl>,
#> #   NWBIR74 <dbl>, BIR79 <dbl>, SID79 <dbl>, NWBIR79 <dbl>

A geom has three attribute tables, one for vertices, one for features and one for groups of features, all of which can be provided with ancillary information (details on data structure of a geom).

getTable(x = nc_geom, slot = "point")
#> # A tibble: 2,529 x 3
#>        x     y   fid
#>    <dbl> <dbl> <int>
#>  1 -81.5  36.2     1
#>  2 -81.5  36.3     1
#>  3 -81.6  36.3     1
#>  4 -81.6  36.3     1
#>  5 -81.7  36.4     1
#>  6 -81.7  36.5     1
#>  7 -81.7  36.5     1
#>  8 -81.7  36.6     1
#>  9 -81.3  36.6     1
#> 10 -81.3  36.5     1
#> # … with 2,519 more rows
getTable(x = nc_geom, slot = "group")
#> # A tibble: 100 x 1
#>      gid
#>    <int>
#>  1     1
#>  2     2
#>  3     3
#>  4     4
#>  5     5
#>  6     6
#>  7     7
#>  8     8
#>  9     9
#> 10    10
#> # … with 90 more rows
…
