geometr - An overview • geometr
…
The grid-geom

Attributes of a geom

You may also be wondering why nc_geom has 108 features, while nc_sf has actually 100 features. nc_sf consists of 100 “MULTIPOLYGONS” where in fact only a small set of them are composed of several polygons. This is due the definition of simple features, where one “simple” feature can be of a multi* type that comprises several closed paths in the same object and which would thus be called MULTIPOLYGON. Yet, an object can also contain only a single closed path and still have the feature type MULTIPOLYGON. In geometr these inconsistencies are avoided because they require a lot of extra code logic that is, in my opinion, not worth the supposed flexibility. Hence, a geom breaks down multi*-features into their distinct closed paths, into “simpler features”, so to speak.

This, however, requires that the togetherness of multi*-features has to be captured in another way. A set of features can be regarded as belonging together when they share attributes, such as a group of islands that form a nation. To capture attributes of sets or groups of features, a geom has an additional attribute table, one that captures those group attributes. Moreover, also the list of points is treated as a separate, third attribute table, for attributes that only the points, but not the features (groups of points) have.

All three attribute tables can be accessed with specific getters.

getPoints(x = nc_geom)
#> # A tibble: 2,529 x 3
#>        x     y   fid
#>    <dbl> <dbl> <int>
#>  1 -81.5  36.2     1
#>  2 -81.5  36.3     1
#>  3 -81.6  36.3     1
#>  4 -81.6  36.3     1
#>  5 -81.7  36.4     1
#>  6 -81.7  36.5     1
#>  7 -81.7  36.5     1
#>  8 -81.7  36.6     1
#>  9 -81.3  36.6     1
#> 10 -81.3  36.5     1
#> # … with 2,519 more rows

getFeatures(x = nc_geom)
#> # A tibble: 108 x 16
#>      fid   gid  AREA PERIMETER CNTY_ CNTY_ID NAME  FIPS  FIPSNO CRESS_ID
#>    <int> <int> <dbl>     <dbl> <dbl>   <dbl> <fct> <fct>  <dbl>    <int>
#>  1     1     1 0.114      1.44  1825    1825 Ashe  37009  37009        5
#>  2     2     2 0.061      1.23  1827    1827 Alle… 37005  37005        3
#>  3     3     3 0.143      1.63  1828    1828 Surry 37171  37171       86
#>  4     4     4 0.07       2.97  1831    1831 Curr… 37053  37053       27
#>  5     5     4 0.07       2.97  1831    1831 Curr… 37053  37053       27
#>  6     6     4 0.07       2.97  1831    1831 Curr… 37053  37053       27
#>  7     7     5 0.153      2.21  1832    1832 Nort… 37131  37131       66
#>  8     8     6 0.097      1.67  1833    1833 Hert… 37091  37091       46
#>  9     9     7 0.062      1.55  1834    1834 Camd… 37029  37029       15
#> 10    10     8 0.091      1.28  1835    1835 Gates 37073  37073       37
#> # … with 98 more rows, and 6 more variables: BIR74 <dbl>, SID74 <dbl>,
#> #   NWBIR74 <dbl>, BIR79 <dbl>, SID79 <dbl>, NWBIR79 <dbl>

getGroups(x = nc_geom)
#> # A tibble: 100 x 1
#>      gid
#>    <int>
#>  1     1
#>  2     2
#>  3     3
#>  4     4
#>  5     5
#>  6     6
#>  7     7
#>  8     8
#>  9     9
#> 10    10
#> # … with 90 more rows

We see that the tables contain ID variables, namely fid and gid, which were not part of the original object. Those allow identifying to which feature coordinates belong and which features form groups. We also see that the feature-table contains those 108 features and that, for instance, features four, five and six are “the same”, or at least have the same attributes. This makes no sense, obviously, so gc_geom has the argument group = FALSE/TRUE to set whether duplicate feature attributes are actually group attributes.

new_geom <- gc_geom(input = nc_sf, group = TRUE)

getFeatures(x = new_geom)
#> # A tibble: 108 x 2
#>      fid   gid
#>    <int> <int>
#>  1     1     1
#>  2     2     2
#>  3     3     3
#>  4     4     4
#>  5     5     4
#>  6     6     4
#>  7     7     5
#>  8     8     6
#>  9     9     7
#> 10    10     8
#> # … with 98 more rows

getGroups(x = new_geom)
#> # A tibble: 100 x 15
#>      gid  AREA PERIMETER CNTY_ CNTY_ID NAME  FIPS  FIPSNO CRESS_ID BIR74
#>    <int> <dbl>     <dbl> <dbl>   <dbl> <fct> <fct>  <dbl>    <int> <dbl>
#>  1     1 0.114      1.44  1825    1825 Ashe  37009  37009        5  1091
#>  2     2 0.061      1.23  1827    1827 Alle… 37005  37005        3   487
#>  3     3 0.143      1.63  1828    1828 Surry 37171  37171       86  3188
#>  4     4 0.07       2.97  1831    1831 Curr… 37053  37053       27   508
#>  5     5 0.153      2.21  1832    1832 Nort… 37131  37131       66  1421
#>  6     6 0.097      1.67  1833    1833 Hert… 37091  37091       46  1452
#>  7     7 0.062      1.55  1834    1834 Camd… 37029  37029       15   286
#>  8     8 0.091      1.28  1835    1835 Gates 37073  37073       37   420
#>  9     9 0.118      1.42  1836    1836 Warr… 37185  37185       93   968
#> 10    10 0.124      1.43  1837    1837 Stok… 37169  37169       85  1612
#> # … with 90 more rows, and 5 more variables: SID74 <dbl>, NWBIR74 <dbl>,
#> #   BIR79 <dbl>, SID79 <dbl>, NWBIR79 <dbl>
…
