geometr: Generate and Process Geometric Shapes — geometr • geometr
…
# Information, such as the attribute table, can be extracted from the object
# in interoperable quality (i.e. same arrangement of the same information).
attr_sf <- getTable(x = nc_sf)
attr_geom <- getTable(x = nc_geom, slot = "feat")

# However, a `geom` has three attribute tables, one for vertices, one for
# features and one for groups of features. All of them (and not only
# features) can be filled with ancilliary information.
getTable(x = nc_geom, slot = "vert")
#> # A tibble: 2,529 x 3
#>        x     y   fid
#>    <dbl> <dbl> <int>
#>  1 -81.5  36.2     1
#>  2 -81.5  36.3     1
#>  3 -81.6  36.3     1
#>  4 -81.6  36.3     1
#>  5 -81.7  36.4     1
#>  6 -81.7  36.5     1
#>  7 -81.7  36.5     1
#>  8 -81.7  36.6     1
#>  9 -81.3  36.6     1
#> 10 -81.3  36.5     1
#> # … with 2,519 more rows
getTable(x = nc_geom, slot = "group")
#> # A tibble: 100 x 1
#>      gid
#>    <int>
#>  1     1
#>  2     2
#>  3     3
#>  4     4
#>  5     5
#>  6     6
#>  7     7
#>  8     8
#>  9     9
#> 10    10
#> # … with 90 more rows
…
