Get the table of point attributes — getPoints • geometr
…
# for a raster object, the @point slot is extracted from its' compact storage
gtGeoms$grid$continuous@point
#> # A tibble: 3 x 2
#>       x     y
#>   <dbl> <dbl>
#> 1     0     0
#> 2    60    56
#> 3     1     1
getPoints(x = gtGeoms$grid$continuous)
#> # A tibble: 3,360 x 3
#>      fid     x     y
#>    <int> <dbl> <dbl>
#>  1     1   0.5   0.5
#>  2     2   1.5   0.5
#>  3     3   2.5   0.5
#>  4     4   3.5   0.5
#>  5     5   4.5   0.5
#>  6     6   5.5   0.5
#>  7     7   6.5   0.5
#>  8     8   7.5   0.5
#>  9     9   8.5   0.5
#> 10    10   9.5   0.5
#> # … with 3,350 more rows
…
