geometr - An overview • geometr
…
history
list
all of the functions of geometr produce an entry in this list to document provenance.

A geom of type grid is a special case of a point geom in that it is made up of a systematically distributed lattice of points, thereby resembling raster objects. A geom of type grid contains in the @point slot merely a table that contains the minimum and maximum value and the cell size for the x and y dimensions, while a geom of type point, line or polygon explicitly contains all the coordinates of the points that make up features. When using the getter getPoints(), this slot is “unpacked” into a form that is interoperable with the other geom types.

gtGeoms$grid$categorical@point
#> # A tibble: 3 × 2
#>       x     y
#>   <dbl> <dbl>
#> 1     0     0
#> 2    60    56
#> 3     1     1
getPoints(x = gtGeoms$grid$categorical)
#> # A tibble: 3,360 × 3
#>        x     y   fid
#>    <dbl> <dbl> <int>
#>  1   0.5   0.5     1
#>  2   1.5   0.5     2
#>  3   2.5   0.5     3
#>  4   3.5   0.5     4
#>  5   4.5   0.5     5
#>  6   5.5   0.5     6
#>  7   6.5   0.5     7
#>  8   7.5   0.5     8
#>  9   8.5   0.5     9
#> 10   9.5   0.5    10
#> # … with 3,350 more rows
…
As with points, the getter getFeatures() unpacks the @feature slot into its interoperable form.

gtGeoms$grid$categorical@feature
#> # A tibble: 726 × 2
#>      val   len
#>    <int> <int>
#>  1    31     2
#>  2    47    10
#>  3    44     7
#>  4    21    27
#>  5    27    14
#>  6    31     1
#>  7    47    11
#>  8    44     8
#>  9    21     5
#> 10    41     4
#> # … with 716 more rows
getFeatures(x = gtGeoms$grid$categorical)
#> # A tibble: 3,360 × 2
#>      fid values
#>    <int>  <int>
#>  1     1     31
#>  2     2     31
#>  3     3     47
#>  4     4     47
#>  5     5     47
#>  6     6     47
#>  7     7     47
#>  8     8     47
#>  9     9     47
#> 10    10     47
#> # … with 3,350 more rows
…
Attributes of a geom

nc_sf consists of 100 “MULTIPOLYGONS” of which in fact only a small number are composed of several polygons. This is due the definition of simple features, where one “simple” feature can be of a multi* type that comprises several closed paths in the same object and which would thus be called MULTIPOLYGON. Yet, an object can also contain only a single closed path and still have the feature type MULTIPOLYGON. In a geom, multi*-features are broken down into their distinct closed paths, into "simpler features", so to speak.

By default, the attributes related to each simple feature are also stored in the @feature slot in a geom, with duplicated entries for all "simpler features" that are part of the same simple feature (for instance, features four, five and six in nc_geom). This may not be desired, for the sake of consistency, so gc_geom has the argument group = FALSE/TRUE to set whether simple feature attributes shall be regarded as group attributes in the resulting geom.

new_geom <- gc_geom(input = nc_sf, group = TRUE)

getFeatures(x = new_geom)
#> # A tibble: 108 × 2
#>      fid   gid
#>    <int> <int>
#>  1     1     1
#>  2     2     2
#>  3     3     3
#>  4     4     4
#>  5     5     4
#>  6     6     4
#>  7     7     5
#>  8     8     6
#>  9     9     7
#> 10    10     8
#> # … with 98 more rows

getGroups(x = new_geom)
#> # A tibble: 100 × 15
#>      gid  AREA PERIMETER CNTY_ CNTY_ID NAME    FIPS  FIPSNO CRESS_ID BIR74 SID74
#>    <int> <dbl>     <dbl> <dbl>   <dbl> <chr>   <chr>  <dbl>    <int> <dbl> <dbl>
#>  1     1 0.114      1.44  1825    1825 Ashe    37009  37009        5  1091     1
#>  2     2 0.061      1.23  1827    1827 Allegh… 37005  37005        3   487     0
#>  3     3 0.143      1.63  1828    1828 Surry   37171  37171       86  3188     5
#>  4     4 0.07       2.97  1831    1831 Currit… 37053  37053       27   508     1
#>  5     5 0.153      2.21  1832    1832 Northa… 37131  37131       66  1421     9
#>  6     6 0.097      1.67  1833    1833 Hertfo… 37091  37091       46  1452     7
#>  7     7 0.062      1.55  1834    1834 Camden  37029  37029       15   286     0
#>  8     8 0.091      1.28  1835    1835 Gates   37073  37073       37   420     0
#>  9     9 0.118      1.42  1836    1836 Warren  37185  37185       93   968     4
#> 10    10 0.124      1.43  1837    1837 Stokes  37169  37169       85  1612     1
#> # … with 90 more rows, and 4 more variables: NWBIR74 <dbl>, BIR79 <dbl>,
#> #   SID79 <dbl>, NWBIR79 <dbl>
…
